ibis-for-dplyr-users – Ibis
…
Sorting your data with order_by()

To sort a column, dplyr has the verb arrange. For instance, to sort the column height using dplyr:

starwars |>
   arrange(height)

# A tibble: 87 × 14
   name     height  mass hair_color skin_color eye_color birth_year sex   gender
   <chr>     <int> <dbl> <chr>      <chr>      <chr>          <dbl> <chr> <chr> 
 1 Yoda         66    17 white      green      brown            896 male  mascu…
 2 Ratts T…     79    15 none       grey, blue unknown           NA male  mascu…
 3 Wicket …     88    20 brown      brown      brown              8 male  mascu…
 4 Dud Bolt     94    45 none       blue, grey yellow            NA male  mascu…
 5 R2-D2        96    32 <NA>       white, bl… red               33 none  mascu…
 6 R4-P17       96    NA none       silver, r… red, blue         NA none  femin…
 7 R5-D4        97    32 <NA>       white, red red               NA none  mascu…
 8 Sebulba     112    40 none       grey, red  orange            NA male  mascu…
 9 Gasgano     122    NA none       white, bl… black             NA male  mascu…
10 Watto       137    NA black      blue, grey yellow            NA male  mascu…
# ℹ 77 more rows
# ℹ 5 more variables: homeworld <chr>, species <chr>, films <list>,
#   vehicles <list>, starships <list>
…
Selecting columns with select()

Ibis, like dplyr, has a select method to include or exclude columns:

With dplyr:

starwars |>
    select(hair_color)

# A tibble: 87 × 1
   hair_color   
   <chr>        
 1 blond        
 2 <NA>         
 3 <NA>         
 4 none         
 5 brown        
 6 brown, grey  
 7 brown        
 8 <NA>         
 9 black        
10 auburn, white
# ℹ 77 more rows
…
Note: A common pitfall to be aware of when referencing column names in Ibis is when column names collide with built-in methods on the Ibis Table object, such as count. In this situation, you will have to reference count like table["count"] or _["count"].

dplyr also allows selecting more than one column at a time:

starwars |>
    select(hair_color, skin_color, eye_color)

# A tibble: 87 × 3
   hair_color    skin_color  eye_color
   <chr>         <chr>       <chr>    
 1 blond         fair        blue     
 2 <NA>          gold        yellow   
 3 <NA>          white, blue red      
 4 none          white       yellow   
 5 brown         light       brown    
 6 brown, grey   light       blue     
 7 brown         light       blue     
 8 <NA>          white, red  red      
 9 black         light       brown    
10 auburn, white fair        blue-gray
# ℹ 77 more rows
…
See the Ibis Column Selectors documentation for the full list of selectors in Ibis.

Renaming columns with rename()

Ibis allows you to rename columns using rename() which provides similar functionality to rename() in dplyr.

In dplyr:

starwars |>
    rename("home_world" = "homeworld")

# A tibble: 87 × 14
   name     height  mass hair_color skin_color eye_color birth_year sex   gender
   <chr>     <int> <dbl> <chr>      <chr>      <chr>          <dbl> <chr> <chr> 
 1 Luke Sk…    172    77 blond      fair       blue            19   male  mascu…
 2 C-3PO       167    75 <NA>       gold       yellow         112   none  mascu…
 3 R2-D2        96    32 <NA>       white, bl… red             33   none  mascu…
 4 Darth V…    202   136 none       white      yellow          41.9 male  mascu…
 5 Leia Or…    150    49 brown      light      brown           19   fema… femin…
 6 Owen La…    178   120 brown, gr… light      blue            52   male  mascu…
 7 Beru Wh…    165    75 brown      light      blue            47   fema… femin…
 8 R5-D4        97    32 <NA>       white, red red             NA   none  mascu…
 9 Biggs D…    183    84 black      light      brown           24   male  mascu…
10 Obi-Wan…    182    77 auburn, w… fair       blue-gray       57   male  mascu…
# ℹ 77 more rows
# ℹ 5 more variables: home_world <chr>, species <chr>, films <list>,
#   vehicles <list>, starships <list>
…
Add new columns with mutate()

Ibis, like dplyr, uses the mutate verb to add columns.

In dplyr,

starwars |>
    mutate(height_m = height / 100) |>
    select(name, height_m)

# A tibble: 87 × 2
   name               height_m
   <chr>                 <dbl>
 1 Luke Skywalker         1.72
 2 C-3PO                  1.67
 3 R2-D2                  0.96
 4 Darth Vader            2.02
 5 Leia Organa            1.5 
 6 Owen Lars              1.78
 7 Beru Whitesun lars     1.65
 8 R5-D4                  0.97
 9 Biggs Darklighter      1.83
10 Obi-Wan Kenobi         1.82
# ℹ 77 more rows
…
A big difference between dplyr’s mutate and Ibis’ mutate is that, in Ibis, you have to chain separate mutate calls together when you reference newly-created columns in the same mutate whereas in dplyr, you can put them all in the same call. This makes Ibis’ mutate more similar to transform in base R.

In dplyr, we only need one mutate call:

starwars %>%
  mutate(
    height_m = height / 100,
    BMI = mass / (height_m^2)
  ) %>%
  select(BMI, everything())

# A tibble: 87 × 16
     BMI name      height  mass hair_color skin_color eye_color birth_year sex  
   <dbl> <chr>      <int> <dbl> <chr>      <chr>      <chr>          <dbl> <chr>
 1  26.0 Luke Sky…    172    77 blond      fair       blue            19   male 
 2  26.9 C-3PO        167    75 <NA>       gold       yellow         112   none 
 3  34.7 R2-D2         96    32 <NA>       white, bl… red             33   none 
 4  33.3 Darth Va…    202   136 none       white      yellow          41.9 male 
 5  21.8 Leia Org…    150    49 brown      light      brown           19   fema…
 6  37.9 Owen Lars    178   120 brown, gr… light      blue            52   male 
 7  27.5 Beru Whi…    165    75 brown      light      blue            47   fema…
 8  34.0 R5-D4         97    32 <NA>       white, red red             NA   none 
 9  25.1 Biggs Da…    183    84 black      light      brown           24   male 
10  23.2 Obi-Wan …    182    77 auburn, w… fair       blue-gray       57   male 
# ℹ 77 more rows
# ℹ 7 more variables: gender <chr>, homeworld <chr>, species <chr>,
#   films <list>, vehicles <list>, starships <list>, height_m <dbl>
…
And pivot_wider:

starwars_colors |>
    pivot_wider(names_from = "attribute", values_from = "color")

# A tibble: 87 × 4
   name               hair_color    skin_color  eye_color
   <chr>              <chr>         <chr>       <chr>    
 1 Luke Skywalker     blond         fair        blue     
 2 C-3PO              <NA>          gold        yellow   
 3 R2-D2              <NA>          white, blue red      
 4 Darth Vader        none          white       yellow   
 5 Leia Organa        brown         light       brown    
 6 Owen Lars          brown, grey   light       blue     
 7 Beru Whitesun lars brown         light       blue     
 8 R5-D4              <NA>          white, red  red      
 9 Biggs Darklighter  black         light       brown    
10 Obi-Wan Kenobi     auburn, white fair        blue-gray
# ℹ 77 more rows
…
